R0
1769448475
R1
2926232745
R2
3614832019
R4
1042141109
R5
359709794
R6
1102873998
R7
3889899277
R9
2465015303
R10
140
R11
3097930966
SP
536875104
NF
1
ZF
0
CF
0
VF
0
value[0]
2049
value[1]
2048
value[2]
2047
value[3]
2046
value[4]
2045
value[5]
2044
value[6]
2043
value[7]
2042
value[8]
2041
value[9]
2040
value[10]
2039
value[11]
2038
value[12]
2037
value[13]
2036
value[14]
2035
value[15]
2034
value[16]
2033
value[17]
2032
value[18]
2031
value[19]
2030
value[20]
2029
value[21]
2028
value[22]
2027
value[23]
2026
value[24]
2025
value[25]
2024
value[26]
2023
value[27]
2022
value[28]
2021
value[29]
2020
value[30]
2019
value[31]
2018
value[32]
2017
value[33]
2016
value[34]
2015
value[35]
2014
value[36]
2013
value[37]
2012
value[38]
2011
value[39]
2010
value[40]
2009
value[41]
2008
value[42]
2007
value[43]
2006
value[44]
2005
value[45]
2004
value[46]
2003
value[47]
2002
value[48]
2001
value[49]
2000
value[50]
1999
value[51]
1998
value[52]
1997
value[53]
1996
value[54]
1995
value[55]
1994
value[56]
1993
value[57]
1992
value[58]
1991
value[59]
1990
value[60]
1989
value[61]
1988
value[62]
1987
value[63]
1986
value[64]
1985
value[65]
1984
value[66]
1983
value[67]
1982
value[68]
1981
value[69]
1980
value[70]
1979
value[71]
1978
value[72]
1977
value[73]
1976
value[74]
1975
value[75]
1974
value[76]
1973
value[77]
1972
value[78]
1971
value[79]
1970
value[80]
1969
value[81]
1968
value[82]
1967
value[83]
1966
value[84]
1965
value[85]
1964
value[86]
1963
value[87]
1962
value[88]
1961
value[89]
1960
value[90]
1959
value[91]
1958
value[92]
1957
value[93]
1956
value[94]
1955
value[95]
1954
value[96]
1953
value[97]
1952
value[98]
1951
value[99]
1950
value[100]
1949
value[101]
1948
value[102]
1947
value[103]
1946
value[104]
1945
value[105]
1944
value[106]
1943
value[107]
1942
value[108]
1941
value[109]
1940
value[110]
1939
value[111]
1938
value[112]
1937
value[113]
1936
value[114]
1935
value[115]
1934
value[116]
1933
value[117]
1932
value[118]
1931
value[119]
1930
value[120]
1929
value[121]
1928
value[122]
1927
value[123]
1926
value[124]
1925
value[125]
1924
value[126]
1923
value[127]
1922
value[128]
1921
value[129]
1920
value[130]
1919
value[131]
1918
value[132]
1917
value[133]
1916
value[134]
1915
value[135]
1914
value[136]
1913
value[137]
1912
value[138]
1911
value[139]
1910
value[140]
1909
value[141]
1908
value[142]
1907
value[143]
1906
value[144]
1905
value[145]
1904
value[146]
1903
value[147]
1902
value[148]
1901
value[149]
1900
value[150]
1899
value[151]
1898
value[152]
1897
value[153]
1896
value[154]
1895
value[155]
1894
value[156]
1893
value[157]
1892
value[158]
1891
value[159]
1890
value[160]
1889
value[161]
1888
value[162]
1887
value[163]
1886
value[164]
1885
value[165]
1884
value[166]
1883
value[167]
1882
value[168]
1881
value[169]
1880
value[170]
1879
value[171]
1878
value[172]
1877
value[173]
1876
value[174]
1875
value[175]
1874
value[176]
1873
value[177]
1872
value[178]
1871
value[179]
1870
value[180]
1869
value[181]
1868
value[182]
1867
value[183]
1866
value[184]
1865
value[185]
1864
value[186]
1863
value[187]
1862
value[188]
1861
value[189]
1860
value[190]
1859
value[191]
1858
value[192]
1857
value[193]
1856
value[194]
1855
value[195]
1854
value[196]
1853
value[197]
1852
value[198]
1851
value[199]
1850
value[200]
1849
value[201]
1848
value[202]
1847
value[203]
1846
value[204]
1845
value[205]
1844
value[206]
1843
value[207]
1842
value[208]
1841
value[209]
1840
value[210]
1839
value[211]
1838
value[212]
1837
value[213]
1836
value[214]
1835
value[215]
1834
value[216]
1833
value[217]
1832
value[218]
1831
value[219]
1830
value[220]
1829
value[221]
1828
value[222]
1827
value[223]
1826
value[224]
1825
value[225]
1824
value[226]
1823
value[227]
1822
value[228]
1821
value[229]
1820
value[230]
1819
value[231]
1818
value[232]
1817
value[233]
1816
value[234]
1815
value[235]
1814
value[236]
1813
value[237]
1812
value[238]
1811
value[239]
1810
value[240]
1809
value[241]
1808
value[242]
1807
value[243]
1806
value[244]
1805
value[245]
1804
value[246]
1803
value[247]
1802
value[248]
1801
value[249]
1800
value[250]
1799
value[251]
1798
value[252]
1797
value[253]
1796
value[254]
1795
value[255]
1794
value[256]
1793
value[257]
1792
value[258]
1791
value[259]
1790
value[260]
1789
value[261]
1788
value[262]
1787
value[263]
1786
value[264]
1785
value[265]
1784
value[266]
1783
value[267]
1782
value[268]
1781
value[269]
1780
value[270]
1779
value[271]
1778
value[272]
1777
value[273]
1776
value[274]
1775
value[275]
1774
value[276]
1773
value[277]
1772
value[278]
1771
value[279]
1770
value[280]
1769
value[281]
1768
value[282]
1767
value[283]
1766
value[284]
1765
value[285]
1764
value[286]
1763
value[287]
1762
value[288]
1761
value[289]
1760
value[290]
1759
value[291]
1758
value[292]
1757
value[293]
1756
value[294]
1755
value[295]
1754
value[296]
1753
value[297]
1752
value[298]
1751
value[299]
1750
value[300]
1749
value[301]
1748
value[302]
1747
value[303]
1746
value[304]
1745
value[305]
1744
value[306]
1743
value[307]
1742
value[308]
1741
value[309]
1740
value[310]
1739
value[311]
1738
value[312]
1737
value[313]
1736
value[314]
1735
value[315]
1734
value[316]
1733
value[317]
1732
value[318]
1731
value[319]
1730
value[320]
1729
value[321]
1728
value[322]
1727
value[323]
1726
value[324]
1725
value[325]
1724
value[326]
1723
value[327]
1722
value[328]
1721
value[329]
1720
value[330]
1719
value[331]
1718
value[332]
1717
value[333]
1716
value[334]
1715
value[335]
1714
value[336]
1713
value[337]
1712
value[338]
1711
value[339]
1710
value[340]
1709
value[341]
1708
value[342]
1707
value[343]
1706
value[344]
1705
value[345]
1704
value[346]
1703
value[347]
1702
value[348]
1701
value[349]
1700
value[350]
1699
value[351]
1698
value[352]
1697
value[353]
1696
value[354]
1695
value[355]
1694
value[356]
1693
value[357]
1692
value[358]
1691
value[359]
1690
value[360]
1689
value[361]
1688
value[362]
1687
value[363]
1686
value[364]
1685
value[365]
1684
value[366]
1683
value[367]
1682
value[368]
1681
value[369]
1680
value[370]
1679
value[371]
1678
value[372]
1677
value[373]
1676
value[374]
1675
value[375]
1674
value[376]
1673
value[377]
1672
value[378]
1671
value[379]
1670
value[380]
1669
value[381]
1668
value[382]
1667
value[383]
1666
value[384]
1665
value[385]
1664
value[386]
1663
value[387]
1662
value[388]
1661
value[389]
1660
value[390]
1659
value[391]
1658
value[392]
1657
value[393]
1656
value[394]
1655
value[395]
1654
value[396]
1653
value[397]
1652
value[398]
1651
value[399]
1650
value[400]
1649
value[401]
1648
value[402]
1647
value[403]
1646
value[404]
1645
value[405]
1644
value[406]
1643
value[407]
1642
value[408]
1641
value[409]
1640
value[410]
1639
value[411]
1638
value[412]
1637
value[413]
1636
value[414]
1635
value[415]
1634
value[416]
1633
value[417]
1632
value[418]
1631
value[419]
1630
value[420]
1629
value[421]
1628
value[422]
1627
value[423]
1626
value[424]
1625
value[425]
1624
value[426]
1623
value[427]
1622
value[428]
1621
value[429]
1620
value[430]
1619
value[431]
1618
value[432]
1617
value[433]
1616
value[434]
1615
value[435]
1614
value[436]
1613
value[437]
1612
value[438]
1611
value[439]
1610
value[440]
1609
value[441]
1608
value[442]
1607
value[443]
1606
value[444]
1605
value[445]
1604
value[446]
1603
value[447]
1602
value[448]
1601
value[449]
1600
value[450]
1599
value[451]
1598
value[452]
1597
value[453]
1596
value[454]
1595
value[455]
1594
value[456]
1593
value[457]
1592
value[458]
1591
value[459]
1590
value[460]
1589
value[461]
1588
value[462]
1587
value[463]
1586
value[464]
1585
value[465]
1584
value[466]
1583
value[467]
1582
value[468]
1581
value[469]
1580
value[470]
1579
value[471]
1578
value[472]
1577
value[473]
1576
value[474]
1575
value[475]
1574
value[476]
1573
value[477]
1572
value[478]
1571
value[479]
1570
value[480]
1569
value[481]
1568
value[482]
1567
value[483]
1566
value[484]
1565
value[485]
1564
value[486]
1563
value[487]
1562
value[488]
1561
value[489]
1560
value[490]
1559
value[491]
1558
value[492]
1557
value[493]
1556
value[494]
1555
value[495]
1554
value[496]
1553
value[497]
1552
value[498]
1551
value[499]
1550
value[500]
1549
value[501]
1548
value[502]
1547
value[503]
1546
value[504]
1545
value[505]
1544
value[506]
1543
value[507]
1542
value[508]
1541
value[509]
1540
value[510]
1539
value[511]
1538
value[512]
1537
value[513]
1536
value[514]
1535
value[515]
1534
value[516]
1533
value[517]
1532
value[518]
1531
value[519]
1530
value[520]
1529
value[521]
1528
value[522]
1527
value[523]
1526
value[524]
1525
value[525]
1524
value[526]
1523
value[527]
1522
value[528]
1521
value[529]
1520
value[530]
1519
value[531]
1518
value[532]
1517
value[533]
1516
value[534]
1515
value[535]
1514
value[536]
1513
value[537]
1512
value[538]
1511
value[539]
1510
value[540]
1509
value[541]
1508
value[542]
1507
value[543]
1506
value[544]
1505
value[545]
1504
value[546]
1503
value[547]
1502
value[548]
1501
value[549]
1500
value[550]
1499
value[551]
1498
value[552]
1497
value[553]
1496
value[554]
1495
value[555]
1494
value[556]
1493
value[557]
1492
value[558]
1491
value[559]
1490
value[560]
1489
value[561]
1488
value[562]
1487
value[563]
1486
value[564]
1485
value[565]
1484
value[566]
1483
value[567]
1482
value[568]
1481
value[569]
1480
value[570]
1479
value[571]
1478
value[572]
1477
value[573]
1476
value[574]
1475
value[575]
1474
value[576]
1473
value[577]
1472
value[578]
1471
value[579]
1470
value[580]
1469
value[581]
1468
value[582]
1467
value[583]
1466
value[584]
1465
value[585]
1464
value[586]
1463
value[587]
1462
value[588]
1461
value[589]
1460
value[590]
1459
value[591]
1458
value[592]
1457
value[593]
1456
value[594]
1455
value[595]
1454
value[596]
1453
value[597]
1452
value[598]
1451
value[599]
1450
value[600]
1449
value[601]
1448
value[602]
1447
value[603]
1446
value[604]
1445
value[605]
1444
value[606]
1443
value[607]
1442
value[608]
1441
value[609]
1440
value[610]
1439
value[611]
1438
value[612]
1437
value[613]
1436
value[614]
1435
value[615]
1434
value[616]
1433
value[617]
1432
value[618]
1431
value[619]
1430
value[620]
1429
value[621]
1428
value[622]
1427
value[623]
1426
value[624]
1425
value[625]
1424
value[626]
1423
value[627]
1422
value[628]
1421
value[629]
1420
value[630]
1419
value[631]
1418
value[632]
1417
value[633]
1416
value[634]
1415
value[635]
1414
value[636]
1413
value[637]
1412
value[638]
1411
value[639]
1410
value[640]
1409
value[641]
1408
value[642]
1407
value[643]
1406
value[644]
1405
value[645]
1404
value[646]
1403
value[647]
1402
value[648]
1401
value[649]
1400
value[650]
1399
value[651]
1398
value[652]
1397
value[653]
1396
value[654]
1395
value[655]
1394
value[656]
1393
value[657]
1392
value[658]
1391
value[659]
1390
value[660]
1389
value[661]
1388
value[662]
1387
value[663]
1386
value[664]
1385
value[665]
1384
value[666]
1383
value[667]
1382
value[668]
1381
value[669]
1380
value[670]
1379
value[671]
1378
value[672]
1377
value[673]
1376
value[674]
1375
value[675]
1374
value[676]
1373
value[677]
1372
value[678]
1371
value[679]
1370
value[680]
1369
value[681]
1368
value[682]
1367
value[683]
1366
value[684]
1365
value[685]
1364
value[686]
1363
value[687]
1362
value[688]
1361
value[689]
1360
value[690]
1359
value[691]
1358
value[692]
1357
value[693]
1356
value[694]
1355
value[695]
1354
value[696]
1353
value[697]
1352
value[698]
1351
value[699]
1350
value[700]
1349
value[701]
1348
value[702]
1347
value[703]
1346
value[704]
1345
value[705]
1344
value[706]
1343
value[707]
1342
value[708]
1341
value[709]
1340
value[710]
1339
value[711]
1338
value[712]
1337
value[713]
1336
value[714]
1335
value[715]
1334
value[716]
1333
value[717]
1332
value[718]
1331
value[719]
1330
value[720]
1329
value[721]
1328
value[722]
1327
value[723]
1326
value[724]
1325
value[725]
1324
value[726]
1323
value[727]
1322
value[728]
1321
value[729]
1320
value[730]
1319
value[731]
1318
value[732]
1317
value[733]
1316
value[734]
1315
value[735]
1314
value[736]
1313
value[737]
1312
value[738]
1311
value[739]
1310
value[740]
1309
value[741]
1308
value[742]
1307
value[743]
1306
value[744]
1305
value[745]
1304
value[746]
1303
value[747]
1302
value[748]
1301
value[749]
1300
value[750]
1299
value[751]
1298
value[752]
1297
value[753]
1296
value[754]
1295
value[755]
1294
value[756]
1293
value[757]
1292
value[758]
1291
value[759]
1290
value[760]
1289
value[761]
1288
value[762]
1287
value[763]
1286
value[764]
1285
value[765]
1284
value[766]
1283
value[767]
1282
value[768]
1281
value[769]
1280
value[770]
1279
value[771]
1278
value[772]
1277
value[773]
1276
value[774]
1275
value[775]
1274
value[776]
1273
value[777]
1272
value[778]
1271
value[779]
1270
value[780]
1269
value[781]
1268
value[782]
1267
value[783]
1266
value[784]
1265
value[785]
1264
value[786]
1263
value[787]
1262
value[788]
1261
value[789]
1260
value[790]
1259
value[791]
1258
value[792]
1257
value[793]
1256
value[794]
1255
value[795]
1254
value[796]
1253
value[797]
1252
value[798]
1251
value[799]
1250
value[800]
1249
value[801]
1248
value[802]
1247
value[803]
1246
value[804]
1245
value[805]
1244
value[806]
1243
value[807]
1242
value[808]
1241
value[809]
1240
value[810]
1239
value[811]
1238
value[812]
1237
value[813]
1236
value[814]
1235
value[815]
1234
value[816]
1233
value[817]
1232
value[818]
1231
value[819]
1230
value[820]
1229
value[821]
1228
value[822]
1227
value[823]
1226
value[824]
1225
value[825]
1224
value[826]
1223
value[827]
1222
value[828]
1221
value[829]
1220
value[830]
1219
value[831]
1218
value[832]
1217
value[833]
1216
value[834]
1215
value[835]
1214
value[836]
1213
value[837]
1212
value[838]
1211
value[839]
1210
value[840]
1209
value[841]
1208
value[842]
1207
value[843]
1206
value[844]
1205
value[845]
1204
value[846]
1203
value[847]
1202
value[848]
1201
value[849]
1200
value[850]
1199
value[851]
1198
value[852]
1197
value[853]
1196
value[854]
1195
value[855]
1194
value[856]
1193
value[857]
1192
value[858]
1191
value[859]
1190
value[860]
1189
value[861]
1188
value[862]
1187
value[863]
1186
value[864]
1185
value[865]
1184
value[866]
1183
value[867]
1182
value[868]
1181
value[869]
1180
value[870]
1179
value[871]
1178
value[872]
1177
value[873]
1176
value[874]
1175
value[875]
1174
value[876]
1173
value[877]
1172
value[878]
1171
value[879]
1170
value[880]
1169
value[881]
1168
value[882]
1167
value[883]
1166
value[884]
1165
value[885]
1164
value[886]
1163
value[887]
1162
value[888]
1161
value[889]
1160
value[890]
1159
value[891]
1158
value[892]
1157
value[893]
1156
value[894]
1155
value[895]
1154
value[896]
1153
value[897]
1152
value[898]
1151
value[899]
1150
value[900]
1149
value[901]
1148
value[902]
1147
value[903]
1146
value[904]
1145
value[905]
1144
value[906]
1143
value[907]
1142
value[908]
1141
value[909]
1140
value[910]
1139
value[911]
1138
value[912]
1137
value[913]
1136
value[914]
1135
value[915]
1134
value[916]
1133
value[917]
1132
value[918]
1131
value[919]
1130
value[920]
1129
value[921]
1128
value[922]
1127
value[923]
1126
value[924]
1125
value[925]
1124
value[926]
1123
value[927]
1122
value[928]
1121
value[929]
1120
value[930]
1119
value[931]
1118
value[932]
1117
value[933]
1116
value[934]
1115
value[935]
1114
value[936]
1113
value[937]
1112
value[938]
1111
value[939]
1110
value[940]
1109
value[941]
1108
value[942]
1107
value[943]
1106
value[944]
1105
value[945]
1104
value[946]
1103
value[947]
1102
value[948]
1101
value[949]
1100
value[950]
1099
value[951]
1098
value[952]
1097
value[953]
1096
value[954]
1095
value[955]
1094
value[956]
1093
value[957]
1092
value[958]
1091
value[959]
1090
value[960]
1089
value[961]
1088
value[962]
1087
value[963]
1086
value[964]
1085
value[965]
1084
value[966]
1083
value[967]
1082
value[968]
1081
value[969]
1080
value[970]
1079
value[971]
1078
value[972]
1077
value[973]
1076
value[974]
1075
value[975]
1074
value[976]
1073
value[977]
1072
value[978]
1071
value[979]
1070
value[980]
1069
value[981]
1068
value[982]
1067
value[983]
1066
value[984]
1065
value[985]
1064
value[986]
1063
value[987]
1062
value[988]
1061
value[989]
1060
value[990]
1059
value[991]
1058
value[992]
1057
value[993]
1056
value[994]
1055
value[995]
1054
value[996]
1053
value[997]
1052
value[998]
1051
value[999]
1050
value[1000]
1049
value[1001]
1048
value[1002]
1047
value[1003]
1046
value[1004]
1045
value[1005]
1044
value[1006]
1043
value[1007]
1042
value[1008]
1041
value[1009]
1040
value[1010]
1039
value[1011]
1038
value[1012]
1037
value[1013]
1036
value[1014]
1035
value[1015]
1034
value[1016]
1033
value[1017]
1032
value[1018]
1031
value[1019]
1030
value[1020]
1029
value[1021]
1028
value[1022]
1027
value[1023]
1026
value[1024]
1025
value[1025]
1024
value[1026]
1023
value[1027]
1022
value[1028]
1021
value[1029]
1020
value[1030]
1019
value[1031]
1018
value[1032]
1017
value[1033]
1016
value[1034]
1015
value[1035]
1014
value[1036]
1013
value[1037]
1012
value[1038]
1011
value[1039]
1010
value[1040]
1009
value[1041]
1008
value[1042]
1007
value[1043]
1006
value[1044]
1005
value[1045]
1004
value[1046]
1003
value[1047]
1002
value[1048]
44246
value[1049]
1000
value[1050]
999
value[1051]
998
value[1052]
997
value[1053]
996
value[1054]
995
value[1055]
994
value[1056]
993
value[1057]
992
value[1058]
991
value[1059]
990
value[1060]
989
value[1061]
988
value[1062]
987
value[1063]
986
value[1064]
985
value[1065]
984
value[1066]
983
value[1067]
982
value[1068]
981
value[1069]
980
value[1070]
979
value[1071]
978
value[1072]
977
value[1073]
976
value[1074]
975
value[1075]
974
value[1076]
973
value[1077]
972
value[1078]
971
value[1079]
970
value[1080]
969
value[1081]
968
value[1082]
967
value[1083]
966
value[1084]
965
value[1085]
964
value[1086]
963
value[1087]
962
value[1088]
961
value[1089]
960
value[1090]
959
value[1091]
958
value[1092]
957
value[1093]
956
value[1094]
955
value[1095]
954
value[1096]
953
value[1097]
952
value[1098]
951
value[1099]
950
value[1100]
949
value[1101]
948
value[1102]
947
value[1103]
946
value[1104]
945
value[1105]
944
value[1106]
943
value[1107]
942
value[1108]
941
value[1109]
940
value[1110]
939
value[1111]
938
value[1112]
937
value[1113]
936
value[1114]
935
value[1115]
934
value[1116]
933
value[1117]
932
value[1118]
931
value[1119]
930
value[1120]
929
value[1121]
928
value[1122]
927
value[1123]
926
value[1124]
925
value[1125]
924
value[1126]
923
value[1127]
922
value[1128]
921
value[1129]
920
value[1130]
919
value[1131]
918
value[1132]
917
value[1133]
916
value[1134]
915
value[1135]
914
value[1136]
913
value[1137]
912
value[1138]
911
value[1139]
910
value[1140]
909
value[1141]
908
value[1142]
907
value[1143]
906
value[1144]
905
value[1145]
904
value[1146]
903
value[1147]
902
value[1148]
901
value[1149]
900
value[1150]
899
value[1151]
898
value[1152]
897
value[1153]
896
value[1154]
895
value[1155]
894
value[1156]
893
value[1157]
892
value[1158]
891
value[1159]
890
value[1160]
889
value[1161]
888
value[1162]
887
value[1163]
886
value[1164]
885
value[1165]
884
value[1166]
883
value[1167]
882
value[1168]
881
value[1169]
880
value[1170]
879
value[1171]
878
value[1172]
877
value[1173]
876
value[1174]
875
value[1175]
874
value[1176]
873
value[1177]
872
value[1178]
871
value[1179]
870
value[1180]
869
value[1181]
868
value[1182]
867
value[1183]
866
value[1184]
865
value[1185]
864
value[1186]
863
value[1187]
862
value[1188]
861
value[1189]
860
value[1190]
859
value[1191]
858
value[1192]
857
value[1193]
856
value[1194]
855
value[1195]
854
value[1196]
853
value[1197]
852
value[1198]
851
value[1199]
850
value[1200]
849
value[1201]
848
value[1202]
847
value[1203]
846
value[1204]
845
value[1205]
844
value[1206]
843
value[1207]
842
value[1208]
841
value[1209]
840
value[1210]
839
value[1211]
838
value[1212]
837
value[1213]
836
value[1214]
835
value[1215]
834
value[1216]
833
value[1217]
832
value[1218]
831
value[1219]
830
value[1220]
829
value[1221]
828
value[1222]
827
value[1223]
826
value[1224]
825
value[1225]
824
value[1226]
823
value[1227]
822
value[1228]
821
value[1229]
820
value[1230]
819
value[1231]
818
value[1232]
817
value[1233]
816
value[1234]
815
value[1235]
814
value[1236]
813
value[1237]
812
value[1238]
811
value[1239]
810
value[1240]
809
value[1241]
808
value[1242]
807
value[1243]
806
value[1244]
805
value[1245]
804
value[1246]
803
value[1247]
802
value[1248]
801
value[1249]
800
value[1250]
799
value[1251]
798
value[1252]
797
value[1253]
796
value[1254]
795
value[1255]
794
value[1256]
793
value[1257]
792
value[1258]
791
value[1259]
790
value[1260]
789
value[1261]
788
value[1262]
787
value[1263]
786
value[1264]
785
value[1265]
784
value[1266]
783
value[1267]
782
value[1268]
781
value[1269]
780
value[1270]
779
value[1271]
778
value[1272]
777
value[1273]
776
value[1274]
775
value[1275]
774
value[1276]
773
value[1277]
772
value[1278]
771
value[1279]
770
value[1280]
769
value[1281]
768
value[1282]
767
value[1283]
766
value[1284]
765
value[1285]
764
value[1286]
763
value[1287]
762
value[1288]
761
value[1289]
760
value[1290]
759
value[1291]
758
value[1292]
757
value[1293]
756
value[1294]
755
value[1295]
754
value[1296]
753
value[1297]
752
value[1298]
751
value[1299]
750
value[1300]
749
value[1301]
748
value[1302]
747
value[1303]
746
value[1304]
745
value[1305]
744
value[1306]
743
value[1307]
742
value[1308]
741
value[1309]
740
value[1310]
739
value[1311]
738
value[1312]
737
value[1313]
736
value[1314]
735
value[1315]
734
value[1316]
733
value[1317]
732
value[1318]
731
value[1319]
730
value[1320]
729
value[1321]
728
value[1322]
727
value[1323]
726
value[1324]
725
value[1325]
724
value[1326]
723
value[1327]
722
value[1328]
721
value[1329]
720
value[1330]
719
value[1331]
718
value[1332]
717
value[1333]
716
value[1334]
715
value[1335]
714
value[1336]
713
value[1337]
712
value[1338]
711
value[1339]
710
value[1340]
709
value[1341]
708
value[1342]
707
value[1343]
706
value[1344]
705
value[1345]
704
value[1346]
703
value[1347]
702
value[1348]
701
value[1349]
700
value[1350]
699
value[1351]
698
value[1352]
697
value[1353]
696
value[1354]
695
value[1355]
694
value[1356]
693
value[1357]
692
value[1358]
691
value[1359]
690
value[1360]
689
value[1361]
688
value[1362]
687
value[1363]
686
value[1364]
685
value[1365]
684
value[1366]
683
value[1367]
682
value[1368]
681
value[1369]
680
value[1370]
679
value[1371]
678
value[1372]
677
value[1373]
676
value[1374]
675
value[1375]
674
value[1376]
673
value[1377]
672
value[1378]
671
value[1379]
670
value[1380]
669
value[1381]
668
value[1382]
667
value[1383]
666
value[1384]
665
value[1385]
664
value[1386]
663
value[1387]
662
value[1388]
661
value[1389]
660
value[1390]
659
value[1391]
658
value[1392]
657
value[1393]
656
value[1394]
655
value[1395]
654
value[1396]
653
value[1397]
652
value[1398]
651
value[1399]
650
value[1400]
649
value[1401]
648
value[1402]
647
value[1403]
646
value[1404]
645
value[1405]
644
value[1406]
643
value[1407]
642
value[1408]
641
value[1409]
640
value[1410]
639
value[1411]
638
value[1412]
637
value[1413]
636
value[1414]
635
value[1415]
634
value[1416]
633
value[1417]
632
value[1418]
631
value[1419]
630
value[1420]
629
value[1421]
628
value[1422]
627
value[1423]
626
value[1424]
625
value[1425]
624
value[1426]
623
value[1427]
622
value[1428]
621
value[1429]
620
value[1430]
619
value[1431]
618
value[1432]
617
value[1433]
616
value[1434]
615
value[1435]
614
value[1436]
613
value[1437]
612
value[1438]
611
value[1439]
610
value[1440]
609
value[1441]
608
value[1442]
607
value[1443]
606
value[1444]
605
value[1445]
604
value[1446]
603
value[1447]
602
value[1448]
601
value[1449]
600
value[1450]
599
value[1451]
598
value[1452]
597
value[1453]
596
value[1454]
595
value[1455]
594
value[1456]
593
value[1457]
592
value[1458]
591
value[1459]
590
value[1460]
589
value[1461]
588
value[1462]
587
value[1463]
586
value[1464]
585
value[1465]
584
value[1466]
583
value[1467]
582
value[1468]
581
value[1469]
580
value[1470]
579
value[1471]
578
value[1472]
577
value[1473]
576
value[1474]
575
value[1475]
574
value[1476]
573
value[1477]
572
value[1478]
571
value[1479]
570
value[1480]
569
value[1481]
568
value[1482]
567
value[1483]
566
value[1484]
565
value[1485]
564
value[1486]
563
value[1487]
562
value[1488]
561
value[1489]
560
value[1490]
559
value[1491]
558
value[1492]
557
value[1493]
556
value[1494]
555
value[1495]
554
value[1496]
553
value[1497]
552
value[1498]
551
value[1499]
550
value[1500]
549
value[1501]
548
value[1502]
547
value[1503]
546
value[1504]
545
value[1505]
544
value[1506]
543
value[1507]
542
value[1508]
541
value[1509]
540
value[1510]
539
value[1511]
538
value[1512]
537
value[1513]
536
value[1514]
535
value[1515]
534
value[1516]
533
value[1517]
532
value[1518]
531
value[1519]
530
value[1520]
529
value[1521]
528
value[1522]
527
value[1523]
526
value[1524]
525
value[1525]
524
value[1526]
523
value[1527]
522
value[1528]
521
value[1529]
520
value[1530]
519
value[1531]
518
value[1532]
517
value[1533]
516
value[1534]
515
value[1535]
514
value[1536]
513
value[1537]
512
value[1538]
511
value[1539]
510
value[1540]
509
value[1541]
508
value[1542]
507
value[1543]
506
value[1544]
505
value[1545]
504
value[1546]
503
value[1547]
502
value[1548]
501
value[1549]
500
value[1550]
499
value[1551]
498
value[1552]
497
value[1553]
496
value[1554]
495
value[1555]
494
value[1556]
493
value[1557]
492
value[1558]
491
value[1559]
490
value[1560]
489
value[1561]
488
value[1562]
487
value[1563]
486
value[1564]
485
value[1565]
484
value[1566]
483
value[1567]
482
value[1568]
481
value[1569]
480
value[1570]
479
value[1571]
478
value[1572]
477
value[1573]
476
value[1574]
475
value[1575]
474
value[1576]
473
value[1577]
472
value[1578]
471
value[1579]
470
value[1580]
469
value[1581]
468
value[1582]
467
value[1583]
466
value[1584]
465
value[1585]
464
value[1586]
463
value[1587]
462
value[1588]
461
value[1589]
460
value[1590]
459
value[1591]
458
value[1592]
457
value[1593]
456
value[1594]
455
value[1595]
454
value[1596]
453
value[1597]
452
value[1598]
451
value[1599]
450
value[1600]
449
value[1601]
448
value[1602]
447
value[1603]
446
value[1604]
445
value[1605]
444
value[1606]
443
value[1607]
442
value[1608]
441
value[1609]
440
value[1610]
439
value[1611]
438
value[1612]
437
value[1613]
436
value[1614]
435
value[1615]
434
value[1616]
433
value[1617]
432
value[1618]
431
value[1619]
430
value[1620]
429
value[1621]
428
value[1622]
427
value[1623]
426
value[1624]
425
value[1625]
424
value[1626]
423
value[1627]
422
value[1628]
421
value[1629]
420
value[1630]
419
value[1631]
418
value[1632]
417
value[1633]
416
value[1634]
415
value[1635]
414
value[1636]
413
value[1637]
412
value[1638]
411
value[1639]
410
value[1640]
409
value[1641]
408
value[1642]
407
value[1643]
406
value[1644]
405
value[1645]
404
value[1646]
403
value[1647]
402
value[1648]
401
value[1649]
400
value[1650]
399
value[1651]
398
value[1652]
397
value[1653]
396
value[1654]
395
value[1655]
394
value[1656]
393
value[1657]
392
value[1658]
391
value[1659]
390
value[1660]
389
value[1661]
388
value[1662]
387
value[1663]
386
value[1664]
385
value[1665]
384
value[1666]
383
value[1667]
382
value[1668]
381
value[1669]
380
value[1670]
379
value[1671]
378
value[1672]
377
value[1673]
376
value[1674]
375
value[1675]
374
value[1676]
373
value[1677]
372
value[1678]
371
value[1679]
370
value[1680]
369
value[1681]
368
value[1682]
367
value[1683]
366
value[1684]
365
value[1685]
364
value[1686]
363
value[1687]
362
value[1688]
361
value[1689]
360
value[1690]
359
value[1691]
358
value[1692]
357
value[1693]
356
value[1694]
355
value[1695]
354
value[1696]
353
value[1697]
352
value[1698]
351
value[1699]
350
value[1700]
349
value[1701]
348
value[1702]
347
value[1703]
346
value[1704]
345
value[1705]
344
value[1706]
343
value[1707]
342
value[1708]
341
value[1709]
340
value[1710]
339
value[1711]
338
value[1712]
337
value[1713]
336
value[1714]
335
value[1715]
334
value[1716]
333
value[1717]
332
value[1718]
331
value[1719]
330
value[1720]
329
value[1721]
328
value[1722]
327
value[1723]
326
value[1724]
325
value[1725]
324
value[1726]
323
value[1727]
322
value[1728]
321
value[1729]
320
value[1730]
319
value[1731]
318
value[1732]
317
value[1733]
316
value[1734]
315
value[1735]
314
value[1736]
313
value[1737]
312
value[1738]
311
value[1739]
310
value[1740]
309
value[1741]
308
value[1742]
307
value[1743]
306
value[1744]
305
value[1745]
304
value[1746]
303
value[1747]
302
value[1748]
301
value[1749]
300
value[1750]
299
value[1751]
298
value[1752]
297
value[1753]
296
value[1754]
295
value[1755]
294
value[1756]
293
value[1757]
292
value[1758]
291
value[1759]
290
value[1760]
289
value[1761]
288
value[1762]
287
value[1763]
286
value[1764]
285
value[1765]
284
value[1766]
283
value[1767]
282
value[1768]
281
value[1769]
280
value[1770]
279
value[1771]
278
value[1772]
277
value[1773]
276
value[1774]
275
value[1775]
274
value[1776]
273
value[1777]
272
value[1778]
271
value[1779]
270
value[1780]
269
value[1781]
268
value[1782]
267
value[1783]
266
value[1784]
265
value[1785]
264
value[1786]
263
value[1787]
262
value[1788]
261
value[1789]
260
value[1790]
259
value[1791]
258
value[1792]
257
value[1793]
256
value[1794]
255
value[1795]
254
value[1796]
253
value[1797]
252
value[1798]
251
value[1799]
250
value[1800]
249
value[1801]
248
value[1802]
247
value[1803]
246
value[1804]
245
value[1805]
244
value[1806]
243
value[1807]
242
value[1808]
241
value[1809]
240
value[1810]
239
value[1811]
238
value[1812]
237
value[1813]
236
value[1814]
235
value[1815]
234
value[1816]
233
value[1817]
232
value[1818]
231
value[1819]
230
value[1820]
229
value[1821]
228
value[1822]
227
value[1823]
226
value[1824]
225
value[1825]
224
value[1826]
223
value[1827]
222
value[1828]
221
value[1829]
220
value[1830]
219
value[1831]
218
value[1832]
217
value[1833]
216
value[1834]
215
value[1835]
214
value[1836]
213
value[1837]
212
value[1838]
211
value[1839]
210
value[1840]
209
value[1841]
208
value[1842]
207
value[1843]
206
value[1844]
205
value[1845]
204
value[1846]
203
value[1847]
202
value[1848]
201
value[1849]
200
value[1850]
199
value[1851]
198
value[1852]
197
value[1853]
196
value[1854]
195
value[1855]
194
value[1856]
193
value[1857]
192
value[1858]
191
value[1859]
190
value[1860]
189
value[1861]
188
value[1862]
187
value[1863]
186
value[1864]
185
value[1865]
184
value[1866]
183
value[1867]
182
value[1868]
181
value[1869]
180
value[1870]
179
value[1871]
178
value[1872]
177
value[1873]
176
value[1874]
175
value[1875]
174
value[1876]
173
value[1877]
172
value[1878]
171
value[1879]
170
value[1880]
169
value[1881]
168
value[1882]
167
value[1883]
166
value[1884]
165
value[1885]
164
value[1886]
163
value[1887]
162
value[1888]
161
value[1889]
160
value[1890]
159
value[1891]
158
value[1892]
157
value[1893]
156
value[1894]
155
value[1895]
154
value[1896]
153
value[1897]
152
value[1898]
151
value[1899]
150
value[1900]
149
value[1901]
148
value[1902]
147
value[1903]
146
value[1904]
145
value[1905]
144
value[1906]
143
value[1907]
142
value[1908]
141
value[1909]
140
value[1910]
139
value[1911]
138
value[1912]
137
value[1913]
136
value[1914]
135
value[1915]
134
value[1916]
133
value[1917]
132
value[1918]
131
value[1919]
130
value[1920]
129
value[1921]
128
value[1922]
127
value[1923]
126
value[1924]
125
value[1925]
124
value[1926]
123
value[1927]
122
value[1928]
121
value[1929]
120
value[1930]
119
value[1931]
118
value[1932]
117
value[1933]
116
value[1934]
115
value[1935]
114
value[1936]
113
value[1937]
112
value[1938]
111
value[1939]
110
value[1940]
109
value[1941]
108
value[1942]
107
value[1943]
106
value[1944]
105
value[1945]
104
value[1946]
103
value[1947]
102
value[1948]
101
value[1949]
100
value[1950]
99
value[1951]
98
value[1952]
97
value[1953]
96
value[1954]
95
value[1955]
94
value[1956]
93
value[1957]
92
value[1958]
91
value[1959]
90
value[1960]
89
value[1961]
88
value[1962]
87
value[1963]
86
value[1964]
85
value[1965]
84
value[1966]
83
value[1967]
82
value[1968]
81
value[1969]
80
value[1970]
79
value[1971]
78
value[1972]
77
value[1973]
76
value[1974]
75
value[1975]
74
value[1976]
73
value[1977]
72
value[1978]
71
value[1979]
70
value[1980]
69
value[1981]
68
value[1982]
67
value[1983]
66
value[1984]
65
value[1985]
64
value[1986]
63
value[1987]
62
value[1988]
61
value[1989]
60
value[1990]
59
value[1991]
58
value[1992]
57
value[1993]
56
value[1994]
55
value[1995]
54
value[1996]
53
value[1997]
52
value[1998]
51
value[1999]
50
value[2000]
49
value[2001]
48
value[2002]
47
value[2003]
46
value[2004]
45
value[2005]
44
value[2006]
43
value[2007]
42
value[2008]
41
value[2009]
40
value[2010]
39
value[2011]
38
value[2012]
37
value[2013]
36
value[2014]
35
value[2015]
34
value[2016]
33
value[2017]
32
value[2018]
31
value[2019]
30
value[2020]
29
value[2021]
28
value[2022]
27
value[2023]
26
value[2024]
25
value[2025]
24
value[2026]
23
value[2027]
22
value[2028]
21
value[2029]
20
value[2030]
19
value[2031]
18
value[2032]
17
value[2033]
16
value[2034]
15
value[2035]
14
value[2036]
13
value[2037]
12
value[2038]
11
value[2039]
10
value[2040]
9
value[2041]
8
value[2042]
7
value[2043]
6
value[2044]
5
value[2045]
4
value[2046]
3
value[2047]
2
value[2048]
1
value[2049]
0
